\relax 
\providecommand\hyper@newdestlabel[2]{}
\providecommand\babel@aux[2]{}
\@nameuse{bbl@beforestart}
\catcode `"\active 
\catcode `-\active 
\providecommand\HyperFirstAtBeginDocument{\AtBeginDocument}
\HyperFirstAtBeginDocument{\ifx\hyper@anchor\@undefined
\global\let\oldcontentsline\contentsline
\gdef\contentsline#1#2#3#4{\oldcontentsline{#1}{#2}{#3}}
\global\let\oldnewlabel\newlabel
\gdef\newlabel#1#2{\newlabelxx{#1}#2}
\gdef\newlabelxx#1#2#3#4#5#6{\oldnewlabel{#1}{{#2}{#3}}}
\AtEndDocument{\ifx\hyper@anchor\@undefined
\let\contentsline\oldcontentsline
\let\newlabel\oldnewlabel
\fi}
\fi}
\global\let\hyper@last\relax 
\gdef\HyperFirstAtBeginDocument#1{#1}
\providecommand\HyField@AuxAddToFields[1]{}
\providecommand\HyField@AuxAddToCoFields[2]{}
\babel@aux{czech}{}
\@writefile{toc}{\contentsline {section}{\numberline {1}Abstraktní metrický prostor}{1}{section.1}\protected@file@percent }
\newlabel{def_mp_3}{{{{(3)}}}{1}{}{Item.3}{}}
\newlabel{def_metricky_prostor}{{1}{1}{}{Item.3}{}}
\newlabel{def_koule}{{2}{1}{otevřená a uzavřená koule}{theorem.2}{}}
\newlabel{def_nlp}{{3}{2}{Normovaný lineární prostor}{Item.6}{}}
\newlabel{t_nerovnost_l_p}{{7}{2}{trojúhelníková nerovnost pro $\ell _p$ normy}{theorem.7}{}}
\newlabel{l_p_metrika}{{8}{2}{}{theorem.8}{}}
\newlabel{otevrena_ii}{{{{(2)}}}{3}{vlastnosti otevřených množin}{Item.18}{}}
\newlabel{vlastnosti_otevrenych}{{11}{3}{vlastnosti otevřených množin}{Item.19}{}}
\newlabel{uzavrena_i}{{{{(1)}}}{4}{charakterizace uzavřených množin}{Item.28}{}}
\newlabel{uzavrena_ii}{{{{(2)}}}{4}{charakterizace uzavřených množin}{Item.29}{}}
\newlabel{uzavrena_iii}{{{{(3)}}}{4}{charakterizace uzavřených množin}{Item.30}{}}
\newlabel{uzavrena_iv}{{{{(4)}}}{4}{charakterizace uzavřených množin}{Item.31}{}}
\newlabel{char_uzavrene}{{15}{5}{}{Item.34}{}}
\newlabel{vlastnosti_uzaveru}{{17}{5}{vlastnosti uzávěru}{Item.52}{}}
\newlabel{def_spojitost}{{18}{6}{spojitost}{theorem.18}{}}
\newlabel{spoj_i}{{{{(1)}}}{6}{}{Item.57}{}}
\newlabel{spoj_ii}{{{{(2)}}}{6}{}{Item.58}{}}
\newlabel{spoj_iii}{{{{(3)}}}{6}{}{Item.59}{}}
\newlabel{otevrenost_vzoru_spojite}{{21}{6}{}{Item.59}{}}
\newlabel{izometricka_metrika}{{25}{8}{}{Item.67}{}}
\newlabel{priklad_topo_ekvivalence}{{27}{8}{}{theorem.27}{}}
\newlabel{omezena_topo_ekvi}{{29}{8}{}{theorem.29}{}}
\@writefile{toc}{\contentsline {section}{\numberline {2}Operace s metrickými prostory}{9}{section.2}\protected@file@percent }
\@writefile{toc}{\contentsline {subsection}{\numberline {2.1}Totálně omezené a separabilní metrické prostory}{10}{subsection.2.1}\protected@file@percent }
\@writefile{toc}{\contentsline {subsubsection}{\numberline {2.1.1}Totální omezenost a základní operace s metrickými prostory}{10}{subsubsection.2.1.1}\protected@file@percent }
\newlabel{charakterizace_totalni_omezenosti}{{39}{10}{}{theorem.39}{}}
\newlabel{totalni_omezenost_podprostoru}{{40}{11}{}{theorem.40}{}}
\newlabel{T:soucinTotOm}{{43}{11}{}{theorem.43}{}}
\newlabel{totalni_omezenost_soucinu}{{43}{11}{}{theorem.43}{}}
\@writefile{toc}{\contentsline {subsubsection}{\numberline {2.1.2}Charakterizace separability}{12}{subsubsection.2.1.2}\protected@file@percent }
\newlabel{char_sep_i}{{{{(1)}}}{12}{}{Item.75}{}}
\newlabel{char_sep_ii}{{{{(2)}}}{12}{}{Item.76}{}}
\newlabel{char_sep_iii}{{{{(3)}}}{12}{}{Item.77}{}}
\newlabel{char_sep_iv}{{{{(4)}}}{12}{}{Item.78}{}}
\newlabel{charakterizace_separability}{{44}{12}{}{Item.78}{}}
\@writefile{toc}{\contentsline {subsection}{\numberline {2.2}Úplné metrické prostory}{14}{subsection.2.2}\protected@file@percent }
\@writefile{toc}{\contentsline {subsubsection}{\numberline {2.2.1}Úplnost a základní operace s metrickými prostory}{15}{subsubsection.2.2.1}\protected@file@percent }
\newlabel{cantor_uzav}{{47}{15}{Cantor}{theorem.47}{}}
\newlabel{uzavrenost_uplneho_podprostoru}{{48}{15}{}{theorem.48}{}}
\newlabel{uplnost_soucinu}{{49}{15}{}{theorem.49}{}}
\@writefile{toc}{\contentsline {subsubsection}{\numberline {2.2.2}Univerzální úplný metrický prostor $\ell _{\infty }(I)$ a zúplnění metrických prostorů}{16}{subsubsection.2.2.2}\protected@file@percent }
\newlabel{univerzalita_l_nekonecno}{{52}{16}{univerzalita $\ell _\infty (I)$}{theorem.52}{}}
\@writefile{toc}{\contentsline {subsubsection}{\numberline {2.2.3}Baireova věta}{17}{subsubsection.2.2.3}\protected@file@percent }
\newlabel{D:hustaMn}{{54}{17}{}{theorem.54}{}}
\newlabel{baire}{{55}{17}{Baire}{theorem.55}{}}
\@writefile{toc}{\contentsline {subsection}{\numberline {2.3}Kompaktní metrický prostor}{18}{subsection.2.3}\protected@file@percent }
\newlabel{komp_i}{{{{(1)}}}{18}{charakterizace kompaktnosti}{Item.88}{}}
\newlabel{komp_ii}{{{{(2)}}}{18}{charakterizace kompaktnosti}{Item.89}{}}
\newlabel{komp_iii}{{{{(3)}}}{18}{charakterizace kompaktnosti}{Item.90}{}}
\newlabel{komp_iv}{{{{(4)}}}{18}{charakterizace kompaktnosti}{Item.91}{}}
\newlabel{komp_v}{{{{(5)}}}{18}{charakterizace kompaktnosti}{Item.92}{}}
\newlabel{komp_vi}{{{{(6)}}}{19}{charakterizace kompaktnosti}{Item.93}{}}
\newlabel{komp_vii}{{{{(7)}}}{19}{charakterizace kompaktnosti}{Item.94}{}}
\newlabel{charakterizace_kompaktnost}{{59}{19}{charakterizace kompaktnosti}{Item.94}{}}
\newlabel{zachovavani_kompaktnosti}{{61}{21}{zachovávání kompaktnosti operacemi}{Item.98}{}}
\newlabel{homeomorfismus_na_kompaktu}{{64}{21}{}{theorem.64}{}}
\@writefile{toc}{\contentsline {subsubsection}{\numberline {2.3.1}Cantorovo diskontinuum a Hilbertova kostka}{22}{subsubsection.2.3.1}\protected@file@percent }
\@writefile{toc}{\contentsline {subsection}{\numberline {2.4}Souvislost}{22}{subsection.2.4}\protected@file@percent }
\newlabel{souv_a}{{{{(1)}}}{22}{}{Item.103}{}}
\newlabel{souv_b}{{{{(2)}}}{22}{}{Item.104}{}}
\newlabel{souv_c}{{{{(3)}}}{22}{}{Item.105}{}}
\newlabel{charakterizace_souvislost}{{67}{22}{}{Item.105}{}}
\newlabel{souvislost_ze_souvislych_obalu}{{68}{23}{}{theorem.68}{}}
\newlabel{souvislost_v_uzaveru}{{70}{23}{}{theorem.70}{}}
\newlabel{spoj_fce_a_souvislost}{{71}{23}{}{theorem.71}{}}
\newlabel{souvislost_z_obloukove}{{73}{23}{}{theorem.73}{}}
\newlabel{prunik_kontinui}{{78}{24}{}{theorem.78}{}}
\@writefile{toc}{\contentsline {subsection}{\numberline {2.5}Hausdorfova metrika}{24}{subsection.2.5}\protected@file@percent }
\newlabel{haus_a}{{{{(1)}}}{25}{}{Item.106}{}}
\newlabel{haus_b}{{{{(2)}}}{25}{}{Item.107}{}}
\newlabel{haus_c}{{{{(3)}}}{25}{}{Item.108}{}}
\newlabel{kompaktnost_a_hausdorf}{{82}{25}{}{Item.108}{}}
\@writefile{toc}{\contentsline {section}{\numberline {3}Iterované funkční systémy}{26}{section.3}\protected@file@percent }
\newlabel{banach_pevny_bod}{{84}{26}{Banachova věta o pevném bodě}{theorem.84}{}}
\@writefile{toc}{\contentsline {paragraph}{Poděkování}{26}{section*.2}\protected@file@percent }
