\relax 
\providecommand\hyper@newdestlabel[2]{}
\providecommand\babel@aux[2]{}
\@nameuse{bbl@beforestart}
\catcode `"\active 
\catcode `-\active 
\providecommand\HyperFirstAtBeginDocument{\AtBeginDocument}
\HyperFirstAtBeginDocument{\ifx\hyper@anchor\@undefined
\global\let\oldcontentsline\contentsline
\gdef\contentsline#1#2#3#4{\oldcontentsline{#1}{#2}{#3}}
\global\let\oldnewlabel\newlabel
\gdef\newlabel#1#2{\newlabelxx{#1}#2}
\gdef\newlabelxx#1#2#3#4#5#6{\oldnewlabel{#1}{{#2}{#3}}}
\AtEndDocument{\ifx\hyper@anchor\@undefined
\let\contentsline\oldcontentsline
\let\newlabel\oldnewlabel
\fi}
\fi}
\global\let\hyper@last\relax 
\gdef\HyperFirstAtBeginDocument#1{#1}
\providecommand\HyField@AuxAddToFields[1]{}
\providecommand\HyField@AuxAddToCoFields[2]{}
\babel@aux{czech}{}
\@writefile{toc}{\contentsline {subsection}{\numberline {6.2}Symbol malé $o$}{1}{subsection.6.2}\protected@file@percent }
\newlabel{def_male_o}{{6.2.1}{1}{}{definition.6.2.1}{}}
\newlabel{rem_def_male_o}{{6.2}{1}{}{Item.3}{}}
\newlabel{aritmetika_male_o}{{6.6}{1}{}{Item.6}{}}
\newlabel{slozena_male_o}{{6.7}{1}{}{theorem.6.7}{}}
\@writefile{toc}{\contentsline {section}{\numberline {7}Číselné řady}{3}{section.7}\protected@file@percent }
\@writefile{toc}{\contentsline {subsection}{\numberline {7.1}Základní pojmy}{3}{subsection.7.1}\protected@file@percent }
\newlabel{def_rada}{{7.1.1}{3}{}{definition.7.1.1}{}}
\newlabel{konverg_rady_nutna}{{7.1}{3}{nutná podmínka konvergence řady}{theorem.7.1}{}}
\newlabel{konvergence_rady_ekviv}{{7.2}{3}{}{Item.16}{}}
\@writefile{toc}{\contentsline {subsection}{\numberline {7.2}Kritéria konvergence}{4}{subsection.7.2}\protected@file@percent }
\newlabel{srov_krit_i}{{1}{4}{srovnávací kritérium}{Item.23}{}}
\newlabel{srovnavaci_kriterium}{{7.3}{4}{srovnávací kritérium}{Item.24}{}}
\newlabel{srovnavaci_kriterium_limitni}{{7.4}{4}{limitní srovnávací kritérium}{Item.27}{}}
\newlabel{cauchy_odmocninove_krit}{{7.5}{5}{Cauchyovo odmocninové kritérium}{Item.35}{}}
\newlabel{d_alembert_podil}{{7.6}{5}{d'Alembertovo podílové kritérium}{Item.44}{}}
\newlabel{kondenzacni_kriterium}{{7.7}{5}{kondenzační kritérium}{theorem.7.7}{}}
\newlabel{harmonicke_rady}{{7.8}{6}{}{theorem.7.8}{}}
\newlabel{leibnizovo_kriterium}{{7.9}{6}{Leibniz}{theorem.7.9}{}}
\@writefile{toc}{\contentsline {subsection}{\numberline {7.3}Absolutní konvergence}{6}{subsection.7.3}\protected@file@percent }
\newlabel{def_absolut_konvergence}{{7.3.1}{6}{}{definition.7.3.1}{}}
\newlabel{konverg_z_absolut}{{7.10}{6}{}{theorem.7.10}{}}
\newlabel{def_prerovnani_rady}{{7.3.2}{6}{}{definition.7.3.2}{}}
\newlabel{prerovnani_absolutni}{{7.11}{7}{}{theorem.7.11}{}}
\newlabel{riemann_neabsolut}{{7.12}{7}{Riemann}{theorem.7.12}{}}
\@writefile{toc}{\contentsline {subsection}{\numberline {7.4}Součin řad}{7}{subsection.7.4}\protected@file@percent }
\newlabel{def_cauchy_socin}{{7.4.1}{7}{}{definition.7.4.1}{}}
\newlabel{mertens_soucin}{{7.13}{7}{Mertens}{theorem.7.13}{}}
\newlabel{abel_soucin}{{7.14}{8}{Abel}{theorem.7.14}{}}
\@writefile{toc}{\contentsline {subsection}{\numberline {7.5}Posloupnosti a řady s komplexními členy}{8}{subsection.7.5}\protected@file@percent }
\newlabel{def_komp_limit}{{7.5.1}{8}{}{definition.7.5.1}{}}
\newlabel{def_komp_rady}{{7.5.2}{8}{}{definition.7.5.2}{}}
\newlabel{def_abs_konv_komplex}{{7.5.3}{8}{}{definition.7.5.3}{}}
\newlabel{konv_z_abs_komplex}{{7.15}{8}{}{theorem.7.15}{}}
\newlabel{def_komplex_exponential}{{7.5.4}{8}{}{definition.7.5.4}{}}
\@writefile{toc}{\contentsline {section}{\numberline {8}Primitivní funkce}{9}{section.8}\protected@file@percent }
\@writefile{toc}{\contentsline {subsection}{\numberline {8.1}Základní vlastnosti}{9}{subsection.8.1}\protected@file@percent }
\newlabel{def_primitivni_fce}{{8.1.1}{9}{}{definition.8.1.1}{}}
\newlabel{rozdil_primitivni_konst}{{8.1}{9}{}{theorem.8.1}{}}
\newlabel{integrovatelnost_spojite}{{8.2}{10}{}{theorem.8.2}{}}
\newlabel{primit_fce_linearni_kombinace}{{8.3}{10}{}{theorem.8.3}{}}
\newlabel{integrace_per_partes}{{8.4}{10}{intergace per partes}{theorem.8.4}{}}
\newlabel{darboux_lemma}{{8.5}{10}{Darboux}{theorem.8.5}{}}
\newlabel{integ_prvni_o_substituci}{{8.6}{10}{první věta o substituci}{theorem.8.6}{}}
\newlabel{integ_druha_o_substituci}{{8.7}{10}{druhá věta o substituci}{theorem.8.7}{}}
\@writefile{toc}{\contentsline {subsection}{\numberline {8.2}Integrace racionálních funkcí}{11}{subsection.8.2}\protected@file@percent }
\newlabel{def_racionalni_fce}{{8.2.1}{11}{}{definition.8.2.1}{}}
\newlabel{faktorizace_polynomu}{{8.8}{12}{}{theorem.8.8}{}}
\newlabel{rozkald_na_parcialni_zlomky}{{8.9}{12}{rozklad na parciální zlomky}{theorem.8.9}{}}
\newlabel{rozklad_parci_a}{{{{a)}}}{13}{}{Item.66}{}}
\@writefile{toc}{\contentsline {subsection}{\numberline {8.3}Trigonometrické substituce}{14}{subsection.8.3}\protected@file@percent }
\newlabel{def_polynom_dvou_prom}{{8.3.1}{14}{}{definition.8.3.1}{}}
\newlabel{def_licha_suda_dve_prom}{{8.3.2}{14}{}{definition.8.3.2}{}}
\@writefile{toc}{\contentsline {subsection}{\numberline {8.4}Integrály typu $\DOTSI \intop \ilimits@ R\left ( t,\sqrt  [q]{\frac  {at+b}{ct+d}} \right )$}{16}{subsection.8.4}\protected@file@percent }
\@writefile{toc}{\contentsline {section}{\numberline {9}Určitý integrál}{18}{section.9}\protected@file@percent }
\@writefile{toc}{\contentsline {subsection}{\numberline {9.1}Riemannův integrál}{18}{subsection.9.1}\protected@file@percent }
\newlabel{def_deleni_intervalu}{{9.1.1}{18}{}{definition.9.1.1}{}}
\newlabel{def_spodni_riemann_int}{{9.1.2}{18}{}{definition.9.1.2}{}}
\newlabel{def_riemann_int}{{9.1.3}{18}{}{definition.9.1.3}{}}
\newlabel{dolni_int_a}{{1}{19}{}{Item.78}{}}
\newlabel{dolni_int_b}{{2}{19}{}{Item.79}{}}
\newlabel{lemma_nerovnosti_dolni_int}{{9.1}{19}{}{Item.80}{}}
\newlabel{nerovnosti_dolni_int}{{9.2}{20}{}{theorem.9.2}{}}
\newlabel{riem_epsilon_omezeni_integralu}{{9.3}{20}{}{theorem.9.3}{}}
\newlabel{eq_ner_horni_soucet}{{1}{20}{Riemannův integrál}{equation.9.1}{}}
\newlabel{dusl_riem_integ_z_omezeni}{{9.4}{21}{}{theorem.9.4}{}}
\newlabel{ex_riem_i}{{1}{21}{kritérium existence Riemannova integrálu}{Item.84}{}}
\newlabel{ex_riem_ii}{{2}{21}{kritérium existence Riemannova integrálu}{Item.85}{}}
\newlabel{exi_riemann_integral}{{9.5}{21}{kritérium existence Riemannova integrálu}{Item.85}{}}
\newlabel{stejnomer_spojitost_na_uzav}{{9.6}{22}{}{theorem.9.6}{}}
\newlabel{riem_integ_spojita}{{9.7}{22}{}{theorem.9.7}{}}
\newlabel{riem_integrovatelnost_monotonni}{{9.8}{22}{}{theorem.9.8}{}}
\newlabel{linearita_riem_integ}{{9.9}{23}{linearita Riemannova integrálu}{theorem.9.9}{}}
\newlabel{riem_integ_a_usporadani}{{9.10}{24}{Riemannův integrál a uspořádání}{theorem.9.10}{}}
\newlabel{aditivita_riem_integ}{{9.11}{24}{aditivita Riemannova integrálu}{theorem.9.11}{}}
\newlabel{abs_hodnota_integralu}{{9.12}{25}{}{theorem.9.12}{}}
\newlabel{derivace_fce_horni_meze}{{9.13}{25}{derivace funkce horní meze}{Item.87}{}}
\newlabel{prim_fce_z_riemann}{{9.14}{26}{}{Item.91}{}}
\newlabel{riemann_int_zmen_konecne}{{9.15}{26}{}{theorem.9.15}{}}
\newlabel{rp_i}{{1}{27}{}{Item.94}{}}
\newlabel{rp_ii}{{2}{27}{}{Item.95}{}}
\newlabel{riemann_puvodni}{{9.16}{27}{}{Item.95}{}}
\@writefile{toc}{\contentsline {subsection}{\numberline {9.2}Newtonův integrál}{28}{subsection.9.2}\protected@file@percent }
\newlabel{linearita_newton_int}{{9.17}{30}{linearita Newtonova integrálu}{theorem.9.17}{}}
\newlabel{newton_int_usporadani}{{9.18}{30}{Newtonův integrál a uspořádání}{theorem.9.18}{}}
\newlabel{eqn:adit_newton_int}{{2}{30}{aditivita Newtonova integrálu}{equation.9.2}{}}
\newlabel{aditivita_newton_int}{{9.19}{30}{aditivita Newtonova integrálu}{Item.101}{}}
\newlabel{newton_int_abs_hodnoty}{{9.20}{31}{}{theorem.9.20}{}}
\newlabel{newton_per_partes}{{9.21}{31}{Per partes pro Newtonův integrál}{theorem.9.21}{}}
\newlabel{newton_substituce}{{9.22}{32}{substituce pro Newtonův integrál}{theorem.9.22}{}}
\newlabel{bc_podminka_fce}{{9.23}{32}{Bolzanova-Cauchyova podmínka pro funkce}{theorem.9.23}{}}
\newlabel{newton_integrovatelnost_spojita}{{9.24}{33}{}{theorem.9.24}{}}
\newlabel{int_vztah_newton_riemann}{{9.25}{33}{vztah Newtonova a Riemannova integrálu}{theorem.9.25}{}}
\newlabel{newton_int_srovnavaci_kriterium}{{9.28}{34}{srovnávací kritérium}{theorem.9.28}{}}
\newlabel{newton_limitni_srovnavaci}{{9.29}{34}{limitní srovnávací kritérium}{theorem.9.29}{}}
\newlabel{lemma_ke_stredni_hodnote}{{9.30}{35}{}{theorem.9.30}{}}
\newlabel{int_prvni_o_stredni_hodnote}{{9.31}{36}{první věta o střední hodnotě}{theorem.9.31}{}}
\newlabel{int_druha_o_stredni_hodnote}{{9.32}{36}{druhá věta o střední hodnotě}{theorem.9.32}{}}
\@writefile{toc}{\contentsline {subsection}{\numberline {9.3}Aplikace určitého integrálu}{37}{subsection.9.3}\protected@file@percent }
\newlabel{lemma_int_krivka}{{9.33}{37}{}{theorem.9.33}{}}
\newlabel{delka_krivky_c1}{{9.34}{37}{}{theorem.9.34}{}}
\newlabel{integralni_krit}{{9.36}{38}{integrální kritérium}{theorem.9.36}{}}
\newlabel{integralni_tvar_zbytku}{{9.37}{39}{tvar zbytku v integrálním tvaru}{theorem.9.37}{}}
\@writefile{toc}{\contentsline {section}{\numberline {10}Obyčejné diferenciální rovnice}{40}{section.10}\protected@file@percent }
\@writefile{toc}{\contentsline {subsection}{\numberline {10.1}Základní pojmy}{40}{subsection.10.1}\protected@file@percent }
\newlabel{eqn:diff_definice}{{3}{40}{}{equation.10.3}{}}
\@writefile{toc}{\contentsline {subsection}{\numberline {10.2}Rovnice se separovanými proměnnými}{40}{subsection.10.2}\protected@file@percent }
\newlabel{eqn:sep_prom}{{4}{40}{}{equation.10.4}{}}
\newlabel{eqn:diffsep_reseni}{{5}{40}{metoda řešení pro spojité $g$ a $h$}{equation.10.5}{}}
\@writefile{toc}{\contentsline {subsection}{\numberline {10.3}Lineární diferenciální rovnice prvního řádu}{41}{subsection.10.3}\protected@file@percent }
\newlabel{eqn:ldr_prv}{{6}{41}{Lineární diferenciální rovnice prvního řádu}{equation.10.6}{}}
\newlabel{eqn:tvar_ldr_prv}{{7}{41}{}{equation.10.7}{}}
\@writefile{toc}{\contentsline {subsection}{\numberline {10.4}Lineární diferenciální rovnice $n$-tého řádu}{42}{subsection.10.4}\protected@file@percent }
\newlabel{eqn:ldr_n_radu}{{8}{42}{Lineární diferenciální rovnice $n$-tého řádu}{equation.10.8}{}}
\newlabel{eqn:ldr_n_homo}{{9}{42}{Lineární diferenciální rovnice $n$-tého řádu}{equation.10.9}{}}
\newlabel{ldr_n_radu_existence}{{10.2}{42}{}{theorem.10.2}{}}
\newlabel{tvar_fundamentalniho_systemu}{{10.4}{43}{tvar fundamentálního systému}{theorem.10.4}{}}
\newlabel{eqn:lk_cis_ldr}{{10}{44}{Derivace funkcí s hodnotami v $\C $}{equation.10.10}{}}
\@writefile{toc}{\contentsline {subsection}{\numberline {10.5}Soustavy diferenciálních rovnic}{46}{subsection.10.5}\protected@file@percent }
\newlabel{eqn:soustava_diff}{{11}{46}{Soustavy diferenciálních rovnic}{equation.10.11}{}}
\newlabel{eqn:rem_ldr_n_radu}{{12}{46}{}{equation.10.12}{}}
\newlabel{eqn:rem_soustava}{{13}{46}{}{equation.10.13}{}}
\@writefile{toc}{\contentsline {subsection}{\numberline {10.6}Soustavy lineárních diferenciálních rovnic}{46}{subsection.10.6}\protected@file@percent }
\newlabel{eqn:ldr_soustava}{{14}{46}{Soustavy lineárních diferenciálních rovnic}{equation.10.14}{}}
\newlabel{existence_soustavy_ldr}{{10.10}{47}{O existenci a jednoznačnosti řešení}{theorem.10.10}{}}
\newlabel{eqn:homo_ldr_soustava}{{15}{47}{}{equation.10.15}{}}
\@writefile{toc}{\contentsline {subsection}{\numberline {10.7}Soustavy LDR s konstantními koeficienty}{48}{subsection.10.7}\protected@file@percent }
\gdef \@abspage@last{50}
