\relax 
\providecommand\hyper@newdestlabel[2]{}
\providecommand\babel@aux[2]{}
\@nameuse{bbl@beforestart}
\catcode `"\active 
\catcode `-\active 
\providecommand\HyperFirstAtBeginDocument{\AtBeginDocument}
\HyperFirstAtBeginDocument{\ifx\hyper@anchor\@undefined
\global\let\oldcontentsline\contentsline
\gdef\contentsline#1#2#3#4{\oldcontentsline{#1}{#2}{#3}}
\global\let\oldnewlabel\newlabel
\gdef\newlabel#1#2{\newlabelxx{#1}#2}
\gdef\newlabelxx#1#2#3#4#5#6{\oldnewlabel{#1}{{#2}{#3}}}
\AtEndDocument{\ifx\hyper@anchor\@undefined
\let\contentsline\oldcontentsline
\let\newlabel\oldnewlabel
\fi}
\fi}
\global\let\hyper@last\relax 
\gdef\HyperFirstAtBeginDocument#1{#1}
\providecommand\HyField@AuxAddToFields[1]{}
\providecommand\HyField@AuxAddToCoFields[2]{}
\babel@aux{czech}{}
\@writefile{toc}{\contentsline {section}{\numberline {1}Jazyk teorie množin}{1}{section.1}\protected@file@percent }
\newlabel{def_formule}{{1.1}{1}{}{Item.10}{}}
\newlabel{def_volny_x_vazany_vyskyt}{{1.2}{1}{}{Item.13}{}}
\@writefile{toc}{\contentsline {paragraph}{Substituce}{1}{section*.1}\protected@file@percent }
\@writefile{toc}{\contentsline {section}{\numberline {2}Axiomy teorie množin}{2}{section.2}\protected@file@percent }
\@writefile{toc}{\contentsline {paragraph}{Axiomy modelu Zermelo-Fraenkel (ZF)}{2}{section*.2}\protected@file@percent }
\newlabel{lemma_nonis_dobre_usp}{{2.16}{5}{}{theorem.2.16}{}}
\newlabel{o_dobre_usporadanych}{{2.18}{6}{}{Item.33}{}}
\@writefile{toc}{\contentsline {section}{\numberline {3}Ordinální čísla}{7}{section.3}\protected@file@percent }
\newlabel{o_ordinalech}{{3.3}{7}{O ordinálech}{Item.45}{}}
\@writefile{toc}{\contentsline {subsection}{\numberline {3.1}Kardinály}{10}{subsection.3.1}\protected@file@percent }
\newlabel{lemma_omez_ordinal}{{3.26}{11}{}{theorem.3.26}{}}
\newlabel{lemma_kard_priroz}{{3.27}{11}{}{Item.82}{}}
\@writefile{toc}{\contentsline {section}{\numberline {4}Třídy a rekurze}{13}{section.4}\protected@file@percent }
\@writefile{toc}{\contentsline {paragraph}{Mocnění kardinálů}{14}{section*.3}\protected@file@percent }
\@writefile{toc}{\contentsline {section}{\numberline {5}Axiom výběru}{14}{section.5}\protected@file@percent }
\newlabel{ac_a}{{{{(1)}}}{15}{}{Item.93}{}}
\newlabel{ac_b}{{{{(2)}}}{15}{}{Item.94}{}}
\newlabel{ac_c}{{{{(3)}}}{15}{}{Item.95}{}}
\newlabel{ac_d}{{{{(4)}}}{15}{}{Item.96}{}}
\newlabel{ekvivalenty_ac}{{5.5}{15}{}{Item.96}{}}
\newlabel{pmwo_a}{{{{(1)}}}{16}{}{Item.97}{}}
\newlabel{pmwo_b}{{{{(2)}}}{16}{}{Item.98}{}}
\newlabel{pmwo_c}{{{{(3)}}}{16}{}{Item.99}{}}
\newlabel{eqn:pmwo_star}{{{*}}{16}{Axiom výběru}{AMS.4}{}}
\newlabel{kardi_a}{{{{(1)}}}{19}{}{Item.114}{}}
\newlabel{kardi_b}{{{{(2)}}}{19}{}{Item.115}{}}
\newlabel{kardi_c}{{{{(3)}}}{19}{}{Item.116}{}}
\@writefile{toc}{\contentsline {section}{\numberline {6}Nekonečná kombinatorika}{20}{section.6}\protected@file@percent }
\@writefile{toc}{\contentsline {subsection}{\numberline {6.1}Princip kompaktnosti}{20}{subsection.6.1}\protected@file@percent }
\@writefile{toc}{\contentsline {paragraph}{Použití:}{21}{section*.5}\protected@file@percent }
